Topic;matters_ims_task21_round1_monoen_bm25;matters_ims_task21_round1_monoen_cbm25;matters_ims_task21_round1_monoen_nlex;matters_ims_task21_round1_monoen_nsle;matters_ims_task21_round1_monoen_vcsum
1;0.575472;0.433962;0.5;0.396226;0.575472
10;0.47651;0.449664;0.503356;0.38255;0.550336
11;0.344;0.672;0.472;0.256;0.576
1101;0.972973;0.945946;0.891892;0.837838;0.936937
1104;0.333333;0.57037;0.407407;0.2;0.548148
1105;0.545455;0.545455;0.584416;0.402597;0.532468
1106;0.232323;0.474747;0.20202;0.131313;0.252525
1110;0.558824;0.426471;0.485294;0.470588;0.676471
1113;0.95;0.866667;0.633333;0.883333;0.866667
1115;0.49711;0.531792;0.537572;0.410405;0.595376
1116;0.765432;0.765432;0.82716;0.728395;0.888889
1120;0.66474;0.65896;0.595376;0.606936;0.687861
1122;0.867647;0.882353;0.75;0.691176;0.852941
1123;0.989474;0.989474;0.884211;0.905263;1
1129;0.909091;0.890909;0.890909;0.836364;0.945455
1130;0.625;0.555556;0.402778;0.451389;0.506944
1135;0.551724;0.568966;0.344828;0.327586;0.62069
12;0.127273;0.327273;0.190909;0.127273;0.245455
13;0.233645;0.570093;0.242991;0.196262;0.523364
14;0.769231;0.759615;0.605769;0.605769;0.634615
18;0.454545;0.480519;0.461039;0.331169;0.571429
19;0.744828;0.724138;0.710345;0.565517;0.793103
21;0.630252;0.638655;0.495798;0.428571;0.554622
22;0.585714;0.742857;0.828571;0.257143;0.828571
23;0.638655;0.663866;0.596639;0.537815;0.647059
24;0.622449;0.673469;0.571429;0.571429;0.602041
3;0.552846;0.479675;0.528455;0.463415;0.609756
4;0.388889;0.555556;0.388889;0.305556;0.416667
6;0.70625;0.66875;0.525;0.45625;0.59375
7;0.923729;0.932203;0.720339;0.745763;0.915254
