Topic;matters_ims_task21_round1_monoen_bm25;matters_ims_task21_round1_monoen_cbm25;matters_ims_task21_round1_monoen_nlex;matters_ims_task21_round1_monoen_nsle;matters_ims_task21_round1_monoen_vcsum
1;0.078362;0.108968;0.319678;0.182031;0.301339
10;0.198696;0.162217;0.296497;0.112454;0.27629
11;0.047601;0.238702;0.229105;0.04523;0.253442
1101;0.479557;0.461512;0.508867;0.216958;0.533297
1104;0.01794;0.198624;0.200882;0.019595;0.210667
1105;0.239177;0.234552;0.368072;0.11338;0.233497
1106;0.019558;0.132434;0.063158;0.014238;0.056721
1110;0.095984;0.142172;0.135453;0.074813;0.089612
1113;0.543438;0.422722;0.228401;0.144549;0.429777
1115;0.218717;0.21505;0.267384;0.204971;0.230521
1116;0.298421;0.298421;0.46399;0.406477;0.397161
1120;0.376083;0.336282;0.352851;0.305391;0.363344
1122;0.25188;0.25931;0.343682;0.085795;0.363694
1123;0.473738;0.496397;0.531711;0.443693;0.530377
1129;0.429858;0.557851;0.657641;0.429935;0.613653
1130;0.258117;0.289282;0.258975;0.284545;0.244654
1135;0.042667;0.066798;0.026555;0.017621;0.04482
12;0.017358;0.131644;0.062885;0.010758;0.070212
13;0.049224;0.25542;0.123565;0.047245;0.134285
14;0.464385;0.398467;0.434359;0.276462;0.395887
18;0.171103;0.134175;0.246419;0.107284;0.275067
19;0.338754;0.371447;0.408219;0.180918;0.407506
21;0.176336;0.224274;0.294794;0.112349;0.25097
22;0.062182;0.526627;0.610769;0.094626;0.611341
23;0.319975;0.37987;0.32416;0.18061;0.324778
24;0.283572;0.32199;0.35044;0.205689;0.285348
3;0.16423;0.052646;0.25668;0.117657;0.262706
4;0.078485;0.214604;0.21542;0.046912;0.134198
6;0.229866;0.238783;0.216696;0.081468;0.224687
7;0.381731;0.440434;0.36829;0.220031;0.446451
