Topic;matters_ims_task21_round1_monosv_bm25;matters_ims_task21_round1_monosv_cbm25;matters_ims_task21_round1_monosv_csum
1;0.842671;0.869319;0.821754
10;0.842413;0.790815;0.793205
11;0.23637;0.727687;0.228259
1101;0.549384;0.625423;0.655136
1104;0.386376;0.254516;0.550909
1105;0.695986;0.725541;0.708477
1106;0.524795;0.791962;0.435376
1110;0.510749;0.555784;0.617809
1113;0.821447;0.860875;0.883721
1115;0.115301;0.470088;0.189026
1116;0.802167;0.800849;0.946006
1120;0.664073;0.765986;0.604047
1122;0.822242;0.760208;0.857523
1123;0.903937;0.926705;0.953516
1129;0.5647;0.585627;0.365979
1130;0.435424;0.944055;0.434331
1135;0;1;0
12;0.743619;0.700488;0.706546
13;0.684154;0.914877;0.759523
14;0.965619;0.967364;0.965534
18;0.6036;0.846986;0.632195
19;0.409402;0.606501;0.522532
21;0.8481;0.879947;0.849743
22;0.964548;0.771315;0.964324
23;0.990526;0.992034;0.993708
24;0.97358;0.983414;0.973987
3;0.949071;0.861861;0.95409
4;0.841426;0.759232;0.852994
6;0.847173;0.908292;0.896172
7;0.562466;0.885007;0.638005
