Topic;matters_ims_task21_round1_monoes_bm25;matters_ims_task21_round1_monoes_cbm25;matters_ims_task21_round1_monoes_csum;matters_ims_task21_round1_monoes_vcsum
1;0.334826;0.385017;0.355289;0.486
10;0.360664;0.445659;0.423952;0.34176
11;0.062174;0.405081;0.070413;0.153171
1101;0.494394;0.47678;0.56814;0.524695
1104;0.076091;0.470371;0.07112;0.084117
1105;0.258332;0.227259;0.562671;0.563003
1106;0.11314;0.148087;0.067238;0.163809
1110;0.291123;0.262241;0.249248;0.363335
1113;0.520653;0.488258;0.564081;0.48973
1115;0.444765;0.441108;0.486064;0.388645
1116;0.466193;0.466193;0.599979;0.442027
1120;0.351902;0.355366;0.352343;0.346549
1122;0.386555;0.329328;0.418727;0.358848
1123;0.598079;0.575254;0.62446;0.617961
1129;0.403985;0.404317;0.36042;0.418024
1130;0.387208;0.377444;0.448669;0.445206
1135;0.339288;0.259645;0.349783;0.145355
12;0.030205;0.332584;0.061692;0.028548
13;0.180816;0.252285;0.172068;0.239129
14;0.478046;0.476536;0.481958;0.434515
18;0.37372;0.230361;0.214177;0.405631
19;0.178736;0.301188;0.22623;0.22779
21;0.425799;0.35909;0.402217;0.418437
22;0.638362;0.660118;0.646482;0.563412
23;0.389136;0.40366;0.385114;0.298992
24;0.437184;0.407524;0.412143;0.391243
3;0.498462;0.493533;0.483354;0.485254
4;0.071122;0.294883;0.050756;0.053515
6;0.319378;0.347479;0.334372;0.46927
7;0.400116;0.4781;0.41143;0.462371
